Project 1: Exploratory Data Analysis
…
defense <- nba_draymond
names(defense)[names(defense) == "player"] <- "Player Name"
names(defense)[names(defense) == "draymond"] <- "Defense"
names(defense)[names(defense) == "season"] <- "Season"
names(defense)[names(defense) == "possessions"] <- "Possessions"

Because both of my datasets are already tidy. I simply ran the datasets for this part of the project and changed the names to be things that would be easier to use and could be used as a combining factor in datasets with Player Names. Other names were changed so capitalization could be consistent throughout the datasets. I will show that I know how to tidy datasets in Dimensionality Reductions. See that section where I show off my tidying skills on summary statistics.

Joining/Merging:

library(tidyr)
library(tidyverse)
inner_join(tats, defense, by = "Player Name")

## # A tibble: 1,815 x 5
##    `Player Name` Tattoos Season Possessions Defense
##    <chr>         <lgl>    <int>       <dbl>   <dbl>
##  1 Aaron Gray    FALSE     2014        727. -1.10  
##  2 Al Horford    FALSE     2014       1944.  1.49  
##  3 Al Horford    FALSE     2015       5738.  1.58  
##  4 Al Horford    FALSE     2016       6204.  1.47  
##  5 Al Horford    FALSE     2017       5690. -0.0590
##  6 Al Horford    FALSE     2018       5985.  2.74  
##  7 Al Horford    FALSE     2019       4834.  1.18  
##  8 Al Jefferson  FALSE     2014       5189.  0.774 
##  9 Al Jefferson  FALSE     2015       3925. -0.815 
## 10 Al Jefferson  FALSE     2016       2554. -0.193 
## # … with 1,805 more rows

NBAdata <- inner_join(tats, defense, by = "Player Name")

In these two datasets, I went ahead and decided to join them by using 'inner_join'. They were joined by the common variable that is Player Names. As can be seen above there are multiple seasons of numerous amounts of players combined with the fact that they had tattoos as well. It was very important to use a 'inner_join" for this case as it would take the all of the data from the x and y datasets, that happened to overlap. The cases that were dropped as part of the final NBA dataset was through the use of inner_join as it dropped players that did not have information about both defensive metrics and whether or not they had tattoos.

Wrangling - Six Core dyplr Functions

library(dplyr)
# six core dplyr functions
NBAdata %>% filter(Season == "2019")

## # A tibble: 187 x 5
##    `Player Name`    Tattoos Season Possessions Defense
##    <chr>            <lgl>    <int>       <dbl>   <dbl>
##  1 Al Horford       FALSE     2019       4834.  1.18  
##  2 Alec Burks       FALSE     2019       2874. -1.06  
##  3 Anthony Davis    FALSE     2019       4014.  1.15  
##  4 Anthony Tolliver FALSE     2019       2328. -0.405 
##  5 Avery Bradley    FALSE     2019       4044.  0.415 
##  6 Bismack Biyombo  FALSE     2019       1631.  0.0141
##  7 Blake Griffin    FALSE     2019       5538. -0.609 
##  8 Brandon Knight   FALSE     2019       1546. -1.46  
##  9 Brook Lopez      FALSE     2019       6040.  2.53  
## 10 Chandler Parsons FALSE     2019       1039.  1.04  
## # … with 177 more rows

RecentNBAdata <- NBAdata %>% filter(Season == "2019")
NBAdata %>% arrange(Defense)

## # A tibble: 1,815 x 5
##    `Player Name`   Tattoos Season Possessions Defense
##    <chr>           <lgl>    <int>       <dbl>   <dbl>
##  1 Josh McRoberts  FALSE     2018        13.6  -16.7 
##  2 Ronny Turiaf    TRUE      2015        42.7  -14.1 
##  3 Jimmer Fredette FALSE     2016        38.9  -12.1 
##  4 Gordon Hayward  FALSE     2018        10.5  -11.8 
##  5 John Jenkins    TRUE      2017        28.1  -10.6 
##  6 Scotty Hopson   FALSE     2014        16.0   -9.24
##  7 Nick Young      TRUE      2019        78.7   -9.17
##  8 Anthony Bennett TRUE      2016       180.    -9.06
##  9 Jeremy Lin      FALSE     2018        62.5   -8.72
## 10 Manny Harris    TRUE      2017        51.0   -8.61
## # … with 1,805 more rows

NBAdata %>% select(-Possessions, -Season)

## # A tibble: 1,815 x 3
##    `Player Name` Tattoos Defense
##    <chr>         <lgl>     <dbl>
##  1 Aaron Gray    FALSE   -1.10  
##  2 Al Horford    FALSE    1.49  
##  3 Al Horford    FALSE    1.58  
##  4 Al Horford    FALSE    1.47  
##  5 Al Horford    FALSE   -0.0590
##  6 Al Horford    FALSE    2.74  
##  7 Al Horford    FALSE    1.18  
##  8 Al Jefferson  FALSE    0.774 
##  9 Al Jefferson  FALSE   -0.815 
## 10 Al Jefferson  FALSE   -0.193 
## # … with 1,805 more rows
…
## # A tibble: 6 x 2
##   Season `mean(Possessions)`
##    <int>               <dbl>
## 1   2014               2817.
## 2   2015               2934.
## 3   2016               3151.
## 4   2017               3169.
## 5   2018               3067.
## 6   2019               3217.

RecentNBAdata %>% mutate(Good_Defender = case_when(Defense > 
    5 ~ "elite", Defense <= 5 & 2.5 <= Defense ~ "great", Defense <= 
    2.5 & 0 <= Defense ~ "good", Defense < 0 ~ "bad"))

## # A tibble: 187 x 6
##    `Player Name`    Tattoos Season Possessions Defense Good_Defender
##    <chr>            <lgl>    <int>       <dbl>   <dbl> <chr>        
##  1 Al Horford       FALSE     2019       4834.  1.18   good         
##  2 Alec Burks       FALSE     2019       2874. -1.06   bad          
##  3 Anthony Davis    FALSE     2019       4014.  1.15   good         
##  4 Anthony Tolliver FALSE     2019       2328. -0.405  bad          
##  5 Avery Bradley    FALSE     2019       4044.  0.415  good         
##  6 Bismack Biyombo  FALSE     2019       1631.  0.0141 good         
##  7 Blake Griffin    FALSE     2019       5538. -0.609  bad          
##  8 Brandon Knight   FALSE     2019       1546. -1.46   bad          
##  9 Brook Lopez      FALSE     2019       6040.  2.53   great        
## 10 Chandler Parsons FALSE     2019       1039.  1.04   good         
## # … with 177 more rows
…
